<?xml version="1.0" standalone="no"?>
<!DOCTYPE svg PUBLIC "-//W3C//DTD SVG 1.1//EN" "http://www.w3.org/Graphics/SVG/1.1/DTD/svg11.dtd">
<svg xmlns="http://www.w3.org/2000/svg">
<metadata>Generated by Fontastic.me</metadata>
<defs>
<font id="untitled-font-1" horiz-adv-x="512">
<font-face font-family="untitled-font-1" units-per-em="512" ascent="480" descent="-32"/>
<missing-glyph horiz-adv-x="512" />

<glyph glyph-name="headset" unicode="&#100;" d="M450 376l-30 0c-6 76-69 136-147 136l-34 0c-78 0-141-60-147-136l-30 0c-30 0-55-25-55-55l0-96c0-30 25-55 55-55l41 0c6 0 11 5 11 12l0 182c0 69 56 125 125 125l34 0c69 0 125-56 125-125l0-182c0-53-34-100-83-118-7 16-23 28-42 28-25 0-46-21-46-46 0-25 21-46 46-46 24 0 44 18 46 42 56 18 96 69 101 128l30 0c30 0 55 25 55 55l0 96c0 30-25 55-55 55z m-359-183l-29 0c-18 0-32 14-32 32l0 96c0 18 14 32 32 32l29 0z m182-170c-13 0-23 10-23 23 0 13 10 23 23 23 13 0 23-10 23-23 0-13-10-23-23-23z m209 202c0-18-14-32-32-32l-29 0 0 160 29 0c18 0 32-14 32-32z"/>
<glyph glyph-name="slim-right" unicode="&#98;" d="M426 190l13-12 73 72 0 12-73 72-12-12 58-58-485 0 0-16 485 0z"/>
<glyph glyph-name="download" unicode="&#102;" d="M256 243l105 105-79 0 0 105-52 0 0-105-79 0z m95 43l-29-30 106-39-172-65-173 65 107 39-30 30-114-43 0-105 210-79 210 79 0 105z"/>
<glyph glyph-name="hipster" unicode="&#103;" d="M256 43l0 0c-5 0-8-4-8-9 0-5 4-8 8-8 5 0 9 3 9 8 0 5-4 9-9 9z m56 58l-56-31-55 31c-5 3-10 1-12-3-2-4-1-9 3-12l60-34c0 0 1 0 2-1 1 0 1 0 2 0l0 0c1 0 1 0 2 0 1 1 2 1 2 1l60 34c4 3 5 8 3 12-2 4-7 6-11 3z m-56-84l0 0c-5 0-8-4-8-8 0-5 4-9 8-9 5 0 9 4 9 9 0 4-4 8-9 8z m-94 85l-51 0c-83 0-93-33-100-58-1-2-1-5-2-7l-9-26c-1-4 1-9 6-11 1 0 2 0 3 0 3 0 6 2 8 6l8 25c1 3 2 6 3 9 5 20 12 43 74 45l0-76c0-5 4-9 9-9 5 0 8 4 8 9l0 76 18 0 0-76c0-5 3-9 8-9 5 0 9 4 9 9l0 76 8 0c5 0 9 4 9 9 0 5-4 8-9 8z m103 120l-18 0c-4 0-8-4-8-9 0-4 4-8 8-8l18 0c4 0 8 4 8 8 0 5-4 9-8 9z m247-211l-9 26c-1 2-1 5-2 7-7 25-17 58-100 58l-51 0c-5 0-9-3-9-8 0-5 4-9 9-9l8 0 0-76c0-5 4-9 9-9 5 0 8 4 8 9l0 76 18 0 0-76c0-5 3-9 8-9 5 0 9 4 9 9l0 76c62-2 69-25 74-45 1-3 2-6 3-9l8-25c2-4 5-6 8-6 1 0 2 0 3 0 5 2 7 7 6 11z m-332 299c2-16 16-28 33-28 16 0 29 11 33 25l20 0c4-14 17-25 33-25 17 0 31 12 33 28l30 15c4 2 6 7 4 12-2 4-7 6-11 3l-25-12c-5 13-17 22-31 22-16 0-29-11-33-26l-20 0c-4 15-17 26-33 26-14 0-26-9-31-22l-25 12c-4 3-9 1-11-3-2-5 0-10 4-12z m119 23c9 0 17-8 17-17 0-10-8-17-17-17-10 0-17 7-17 17 0 9 7 17 17 17z m-86 0c10 0 17-8 17-17 0-10-7-17-17-17-9 0-17 7-17 17 0 9 8 17 17 17z m179-42c10 4 18 13 18 25l0 17c0 12-7 21-17 24l0 61c0 56-38 94-94 94l-222 0c-4 0-7-2-8-6-1-3 0-7 2-9 1 0 48-41 48-79l0-34c0-5 4-9 9-9 4 0 97 1 166 39 11-30 40-39 56-39 5 0 8 4 8 9 0 5-3 9-8 9-2 0-36 0-43 35-1 3-2 5-5 6-3 2-5 1-8 0-54-34-132-40-157-41l0 25c0 30-23 60-39 77l201 0c46 0 76-30 76-77l0-68c0-5 4-9 9-9 6 0 9-3 9-8l0-17c0-5-4-9-9-9-5 0-9-4-9-8 0-1 0-32-15-64-11-10-35-17-49-20-7 20-23 41-55 41-32 0-48-21-55-41-14 3-37 10-48 20-16 31-16 63-16 64 0 4-4 8-9 8-5 0-9 4-9 9l0 17c0 5 4 8 9 8 5 0 9 4 9 9 0 5-4 8-9 8-15 0-26-11-26-25l0-17c0-12 8-21 18-25 1-11 4-37 17-62 0-1 0-2 0-2 8-65 27-125 119-125 66 0 108 21 119 126 13 26 16 51 17 63z m-136-172c-60 0-89 26-99 93 14-7 30-11 40-14 0-4-1-7-1-10 0-5 4-9 9-9l0 0c5 0 8 4 8 9 0 2 1 51 43 51 42 0 43-49 43-51 0-5 3-9 8-9 5 0 9 4 9 9 0 3-1 6-1 10 10 3 27 7 41 15-10-70-36-94-100-94z"/>
<glyph glyph-name="mother" unicode="&#104;" d="M128 205c5 0 9 4 9 8l0 17c0 5-4 9-9 9-5 0-9-4-9-9l0-17c0-4 4-8 9-8z m256 34c-5 0-9-4-9-9l0-17c0-4 4-8 9-8 5 0 9 4 9 8l0 17c0 5-4 9-9 9z m8-160c0 0 0 1-1 2 0 0 0 0 0 1 0 0 0 0 0 0-1 0-1 1-1 1-1 0-1 1-2 1 0 0 0 0 0 0l-34 18c-3 1-6 1-9-1l-51-34c-2-2-4-4-4-7l0-31c-5-4-17-12-34-12-16 0-29 8-34 12l0 31c0 3-2 5-4 7l-51 34c-3 2-6 2-9 1l-34-18c0 0 0 0 0 0-1 0-1-1-2-1 0 0 0-1-1-1 0 0 0 0 0 0 0-1 0-1 0-1-1-1-1-2-1-2 0-1 0-1 0-2 0 0 0-1 0-1 0-1 0-1 0-2 0 0 0-1 0-1 0 0 1 0 1 0 0-1 0-1 1-2 0 0 0-1 1-1 0 0 0 0 0 0l51-34c2-1 4-2 5-2 3 0 6 1 7 4 3 4 2 9-2 12l-39 26 17 8 43-29 0-29c0-3 1-5 2-6 1-1 20-20 49-20 29 0 48 19 49 20 1 1 2 3 2 6l0 29 43 29 17-8-39-26c-4-3-5-8-2-12 1-3 4-4 7-4 1 0 3 1 5 2l51 34c0 0 0 0 0 0 1 0 1 1 1 1 1 1 1 1 1 2 0 0 1 0 1 0 0 0 0 1 0 1 0 1 0 1 0 2 0 0 0 1 0 1 0 1 0 1 0 2z m-335 24c1 0 2-1 3-1 3 0 7 3 8 6 1 3 26 79 26 148l0 77c0 134 88 162 162 162 25 0 78 0 86-11 0-1 0-1 0-3-1-3-1-6 1-9 2-2 5-3 8-3 11 2 21 0 29-8 23-19 38-70 38-128l0-77c0-77 25-145 26-148 2-4 7-7 11-5 5 2 7 7 5 11 0 1-25 68-25 142l0 77c0 50-11 114-44 141-9 8-20 13-32 13-1 3-2 5-3 7-13 17-53 18-100 18-116 0-179-64-179-179l0-77c0-66-25-142-25-142-2-5 1-10 5-11z m35-18c-72-18-91-71-92-74-1-4 1-9 6-11 1 0 2 0 3 0 3 0 6 2 8 6 0 0 16 47 79 63 5 1 7 5 6 10-1 4-6 7-10 6z m121 188c5 0 9 4 9 9l0 5c0 0 1-1 1-1 1-3 4-4 7-4 2 0 3 0 4 1 5 2 6 7 4 11-3 5-11 13-25 13-14 0-22-8-24-13-2-4-1-9 3-11 4-2 9-1 12 3 0 0 0 1 1 1l0-5c0-5 4-9 8-9z m299-262c-1 3-20 56-92 74-4 1-9-2-10-6-1-5 1-9 6-10 63-16 79-61 79-63 2-4 5-6 8-6 1 0 2 0 3 0 5 2 7 7 6 11z m-256 168c20 0 31 10 32 11 3 4 3 9 0 12-4 3-9 4-12 0-1 0-7-6-20-6-13 0-19 6-20 6-3 4-8 4-12 0-3-3-3-8 0-12 1-1 12-11 32-11z m43 94c4 0 8 4 8 9l0 5c1 0 1-1 1-1 2-3 5-4 8-4 1 0 2 0 4 1 4 2 5 7 3 11-2 5-10 13-24 13-14 0-22-8-25-13-2-4-1-9 3-11 4-2 10-1 12 3 0 0 1 1 1 1l0-5c0-5 4-9 9-9z m90 50c-8 6-31 27-31 44 0 5-3 8-8 8-5 0-9-3-9-8 0-25 25-47 34-55-1-34-25-96-33-112-7-15-48-63-86-63-38 0-79 48-86 63-9 17-33 83-33 116l0 25c33 1 157 7 218 53 4 3 5 8 2 12-3 4-8 5-12 2-65-49-215-50-217-50-5 0-9-3-9-8l0-34c0-37 27-107 35-124 11-20 56-73 102-73 46 0 91 53 102 73 8 17 35 87 35 124 0 2-2 5-4 7z"/>
<glyph glyph-name="network" unicode="&#105;" d="M456 512c-31 0-56-25-56-56 0-9 3-19 7-26l-91-92c-13 10-29 16-46 16-17 0-33-6-46-16l-71 71c3 6 5 12 5 19 0 21-16 37-37 37-21 0-37-16-37-37 0-20 16-37 37-37 7 0 13 2 19 5l71-71c-10-13-16-29-16-46 0-17 6-33 16-45l-118-118c-10 9-23 14-37 14-31 0-56-25-56-56 0-30 25-55 56-55 31 0 56 25 56 55 0 10-3 19-7 27l119 120c11-8 23-14 37-16l0-94c-27-5-47-28-47-55 0-31 25-56 56-56 31 0 56 25 56 56 0 27-20 50-47 55l0 94c14 2 26 8 37 16l71-72c-3-5-5-12-5-19 0-20 16-37 37-37 20 0 37 17 37 37 0 21-17 38-37 38-7 0-13-2-19-6l-71 72c10 12 15 28 15 45 0 17-5 33-15 46l90 90c10-9 23-15 37-15 31 0 56 25 56 56 0 31-25 56-56 56z m-354-84c0 10 9 19 19 19 10 0 19-9 19-19 0-10-9-18-19-18-10 0-19 8-19 18z m-46-391c-21 0-37 17-37 37 0 21 16 38 37 38 20 0 37-17 37-38 0-20-17-37-37-37z m251 19c0-21-16-37-37-37-21 0-37 16-37 37 0 20 16 37 37 37 21 0 37-17 37-37z m-37 167c-31 0-56 25-56 56 0 31 25 56 56 56 31 0 56-25 56-56 0-31-25-56-56-56z m168-93c0-10-9-18-19-18-10 0-19 8-19 18 0 11 9 19 19 19 10 0 19-8 19-19z m18 289c-20 0-37 17-37 37 0 21 17 37 37 37 21 0 37-16 37-37 0-20-16-37-37-37z"/>
<glyph glyph-name="open-box" unicode="&#106;" d="M506 301l-70 38 56 38c3 2 5 6 5 9 0 4-3 8-6 10l-160 79c-3 2-7 2-10 0l-65-40-65 40c-3 2-7 2-10 0l-160-80c-3-1-6-5-6-9 0-3 2-7 5-9l57-38-71-38c-4-2-6-6-6-10 0-4 2-7 5-9l158-94c2-1 4-1 6-1 2 0 3 0 5 1l71 38 0-162-137 69 0 63c0 6-5 10-11 10-6 0-11-4-11-10l0-70c0-4 2-8 6-10l159-79c0 0 0 0 0 0 1 0 1-1 1-1 0 0 0 0 1 0 0 0 0 0 0 0 1 0 1 0 1 0 0 0 0 0 1 0 0 0 0 0 1 0 0 0 0 0 0 0 0 0 1 0 1 0 1 0 1 0 1 0 0 0 0 0 1 0 0 0 0 0 0 0 1 0 1 0 1 0 0 1 0 1 1 1 0 0 0 0 0 0l159 79c4 2 6 6 6 10l0 70c0 6-5 10-11 10-6 0-11-4-11-10l0-63-137-69 0 162 71-38c2-1 3-1 5-1 2 0 4 0 6 1l158 94c3 2 5 5 5 9 0 4-2 8-6 10z m-250-44l-136 81 136 72 136-72z m71 196l137-69-50-33-136 72z m-142 0l49-30-136-72-50 33z m-16-243l-136 81 65 34 136-80z m174 0l-65 35 136 80 65-34z"/>
<glyph glyph-name="plus" unicode="&#107;" d="M256 505c-137 0-249-112-249-249 0-137 112-248 249-248 137 0 248 111 248 248 0 137-111 249-248 249z m0-478c-127 0-230 103-230 229 0 127 103 230 230 230 126 0 229-103 229-230 0-126-103-229-229-229z m119 239l-110 0 0 105c0 5-4 10-9 10-5 0-10-5-10-10l0-105-110 0c-5 0-9-5-9-10 0-5 4-9 9-9l110 0 0-115c0-5 5-10 10-10 5 0 9 5 9 10l0 115 110 0c6 0 10 4 10 9 0 5-4 10-10 10z"/>
<glyph glyph-name="redo-arrow" unicode="&#108;" d="M319 324c-140 0-248-31-310-186 93 78 186 93 310 62l0-93 185 155-185 155z"/>
<glyph glyph-name="team" unicode="&#109;" d="M346 321c-22 18-45 30-53 34l0 31c5 4 8 11 8 17l0 38c0 23-19 41-41 41l-8 0c-22 0-41-18-41-41l0-38c0-6 3-12 8-17l0-31c-8-4-31-16-53-34-5-5-9-11-9-19l0-26c0-3 3-6 7-6 3 0 6 3 6 6l0 26c0 4 2 7 4 10 23 18 48 31 53 33 3 2 5 4 5 7l0 37c0 2-1 4-3 5-3 2-5 6-5 9l0 38c0 16 13 28 28 28l8 0c15 0 28-12 28-28l0-38c0-3-2-7-5-9-2-1-3-3-3-5l0-36c0-3 2-6 5-8 5-2 30-14 53-33 2-3 4-6 4-10l0-26c0-3 3-6 6-6 4 0 7 3 7 6l0 26c0 8-4 15-9 19z m157-239c-21 17-44 29-53 34l0 30c5 5 8 11 8 18l0 38c0 22-18 40-40 40l-9 0c-22 0-40-18-40-40l0-38c0-7 3-13 8-18l0-30c-9-5-32-17-53-34-6-5-9-12-9-19l0-27c0-3 3-6 6-6 4 0 6 3 6 6l0 27c0 3 2 7 5 9 23 19 48 31 53 34 2 1 4 4 4 7l0 36c0 3-1 5-3 6-3 2-5 5-5 9l0 38c0 15 13 28 28 28l9 0c15 0 27-13 27-28l0-38c0-4-1-7-4-9-2-1-3-3-3-6l0-36c0-3 1-6 4-7 5-3 30-15 53-34 3-2 4-6 4-9l0-27c0-3 3-6 7-6 3 0 6 3 6 6l0 27c0 7-3 14-9 19z m-315 0c-21 17-44 29-53 34l0 30c5 5 8 11 8 18l0 38c0 22-18 40-40 40l-9 0c-22 0-40-18-40-40l0-38c0-7 3-13 8-18l0-30c-9-5-32-17-53-34-6-5-9-12-9-19l0-27c0-3 3-6 6-6 4 0 7 3 7 6l0 27c0 3 1 7 4 9 23 19 48 31 53 34 2 1 4 4 4 7l0 36c0 3-1 5-3 6-3 2-4 5-4 9l0 38c0 15 12 28 27 28l9 0c15 0 28-13 28-28l0-38c0-4-2-7-5-9-2-1-3-3-3-6l0-36c0-3 2-6 4-7 5-3 30-15 53-34 3-2 5-6 5-9l0-27c0-3 2-6 6-6 3 0 6 3 6 6l0 27c0 7-3 14-9 19z m136 80l-61 35 0 71c0 3-3 6-6 6-4 0-6-3-6-6l0-71-61-35c-4-2-5-6-3-9 1-2 3-3 6-3 1 0 2 1 3 1l61 35 61-35c1 0 2-1 3-1 2 0 4 1 5 3 2 3 1 7-2 9z"/>
<glyph glyph-name="chat" unicode="&#97;" d="M363 288l0 64c0 53-43 96-96 96l-171 0c-53 0-96-43-96-96l0-64c0-53 43-96 96-96l11 0 0-53c0-5 2-9 6-10 2-1 3-1 4-1 3 0 6 1 8 3l61 61 81 0c53 0 96 43 96 96z m-182-75c-3 0-5-1-7-3l-46-46 0 39c0 6-5 10-11 10l-21 0c-41 0-75 34-75 75l0 64c0 41 34 75 75 75l171 0c41 0 74-34 74-75l0-64c0-41-33-75-74-75l-86 0z m235 171l-20 0c-6 0-11-5-11-11 0-6 5-10 11-10l20 0c41 0 75-34 75-75l0-64c0-41-34-75-75-75l-21 0c-6 0-11-4-11-10l0-39-46 46c-2 2-4 3-7 3l-86 0c-15 0-30 5-42 14-5 3-12 2-15-2-4-5-3-12 2-15 17-12 36-18 55-18l81 0 61-61c2-2 5-3 8-3 1 0 2 0 4 1 4 1 6 5 6 10l0 53 11 0c53 0 96 43 96 96l0 64c0 53-43 96-96 96z"/>
<glyph glyph-name="chat-1" unicode="&#99;" d="M459 405l-64 0c-6 0-11-4-11-10 0-6 5-11 11-11l64 0c17 0 32-14 32-32l0-192c0-18-15-32-32-32l-43 0c-6 0-11-5-11-11l0-42-68 51c-2 1-4 2-6 2l-128 0c-7 0-13 2-19 6-5 4-11 2-15-2-3-5-2-12 3-15 9-7 20-10 31-10l124 0 83-62c1-2 4-2 6-2 2 0 3 0 5 1 3 2 6 5 6 9l0 54 32 0c29 0 53 24 53 53l0 192c0 29-24 53-53 53z m-150-234c30 0 54 24 54 53l0 192c0 29-24 53-54 53l-256 0c-29 0-53-24-53-53l0-192c0-29 24-53 53-53l32 0 0-54c0-4 3-7 6-9 2-1 3-1 5-1 2 0 5 0 6 2l83 62z m-134 19l-68-51 0 42c0 6-5 11-11 11l-43 0c-17 0-32 14-32 32l0 192c0 18 15 32 32 32l256 0c18 0 32-14 32-32l0-192c0-18-14-32-32-32l-128 0c-2 0-4-1-6-2z"/>
<glyph glyph-name="up-arrow" unicode="&#110;" d="M256 512c-141 0-256-115-256-256 0-141 115-256 256-256 141 0 256 115 256 256 0 141-115 256-256 256z m0-493c-131 0-237 106-237 237 0 131 106 237 237 237 131 0 237-106 237-237 0-131-106-237-237-237z m11 308c-6 6-16 6-22 0l-109-109c-4-4-4-10 0-13 3-4 9-4 13 0l107 107 107-107c2-2 4-3 7-3 2 0 5 1 6 3 4 3 4 9 0 13z"/>
<glyph glyph-name="menu" unicode="&#101;" d="M16 352l480 0c9 0 16 7 16 16 0 9-7 16-16 16l-480 0c-9 0-16-7-16-16 0-9 7-16 16-16z m480-80l-480 0c-9 0-16-7-16-16 0-9 7-16 16-16l480 0c9 0 16 7 16 16 0 9-7 16-16 16z m0-112l-320 0c-9 0-16-7-16-16 0-9 7-16 16-16l320 0c9 0 16 7 16 16 0 9-7 16-16 16z"/>
<glyph glyph-name="menu-close" unicode="&#111;" d="M80 414l340-340c6-6 16-6 22 0 6 7 6 17 0 23l-339 339c-7 7-17 7-23 0-6-6-6-16 0-22z m334 23l-339-339c-6-7-6-17 0-23 6-6 16-6 23 0l339 339c6 7 6 17 0 23-6 6-16 6-23 0z"/>
<glyph glyph-name="paper-plane" unicode="&#112;" d="M499 357c-1 3-3 4-6 4l-475-42c-4 0-8-4-8-9-1-4 2-8 7-9l102-26 21-109c0-1 0-2 1-3 1-1 1-1 2-2 0 0 1 0 1 0 1 0 1 0 1-1 2 0 3 0 4 1l77 41 81-96c3-4 8-6 13-6 5 0 9 3 12 7l167 244c1 2 2 4 0 6z m-374-70l-85 21 339 30z m78-48c0 0 0 0 0 0 0 0 0-1 0-1l-53-57-18 95 300 59-227-95c-1 0-1-1-2-1z m-27-49l31 34 10-12z m146-76c-1-1-2-1-3-1 0 0-1 0-2 1l-99 117 258 109z"/>
</font></defs></svg>
